{
   "dcterms:creator": "WILSON",
   "dcterms:title": "Electric Cart Tune-Up",
   "max:assetlocpriority": 2,
   "max:calcpriority": 3,
   "max:changeby": "WINSTON",
   "max:glaccount": "6500-300-???",
   "max:orgid": "EAGLENA",
   "max:siteid": "BEDFORD",
   "max:statusdate": "2003-07-07T09:50:00-04:00",
   "max:worktype": "PM",
   "oslc:shortTitle": "TEST12",
   "oslc_wm:asset": "A001",
   "oslc_wm:location": "CENTRAL",
   "oslc_wm:status": "APPR"
}